module example.com/m/v2

go 1.21.4

require (
	github.com/gofiber/fiber/v2 v2.51.0
	github.com/gofiber/template/html/v2 v2.0.5
	github.com/joho/godotenv v1.5.1
)

require (
	github.com/andybalholm/brotli v1.0.5 // indirect
	github.com/gofiber/template v1.8.2 // indirect
	github.com/gofiber/utils v1.1.0 // indirect
	github.com/google/uuid v1.4.0 // indirect
	github.com/klauspost/compress v1.16.7 // indirect
	github.com/mattn/go-colorable v0.1.13 // indirect
	github.com/mattn/go-isatty v0.0.20 // indirect
	github.com/mattn/go-runewidth v0.0.15 // indirect
	github.com/philhofer/fwd v1.1.2 // indirect
	github.com/rivo/uniseg v0.2.0 // indirect
	github.com/tinylib/msgp v1.1.8 // indirect
	github.com/valyala/bytebufferpool v1.0.0 // indirect
	github.com/valyala/fasthttp v1.50.0 // indirect
	github.com/valyala/tcplisten v1.0.0 // indirect
	golang.org/x/sys v0.14.0 // indirect
)
